# Blender MTL File: 'None'
# Material Count: 1

newmtl Material
Ns 96.078431
Ka 1.000000 1.000000 1.000000
Kd 0.528083 0.528083 0.528083
Ks 0.344559 0.344559 0.344559
Ke 0.000000 0.000000 0.000000
Ni 1.000000
d 1.000000
illum 2
map_Kd texture-test.png
